R Markdown
…
investment_annual_summary <-
  read_csv(
    "https://assets.datacamp.com/production/repositories/5756/datasets/d0251f26117bbcf0ea96ac276555b9003f4f7372/investment_annual_summary.csv"
  )
investment_services_projects <-
  read_csv(
    "https://assets.datacamp.com/production/repositories/5756/datasets/78b002735b6f620df7f2767e63b76aaca317bf8d/investment_services_projects.csv"
  )

investment_annual_summary

## # A tibble: 42 x 3
##    fiscal_year region                          dollars_in_millions
##          <dbl> <chr>                                         <dbl>
##  1        2012 East Asia and the Pacific                      2548
##  2        2012 Europe and Central Asia                        2915
##  3        2012 Latin America and the Caribbean                3680
##  4        2012 Middle East and North Africa                   2210
##  5        2012 South Asia                                     1312
##  6        2012 Sub-Saharan Africa                             2733
##  7        2013 East Asia and the Pacific                      2873
##  8        2013 Europe and Central Asia                        3261
##  9        2013 Latin America and the Caribbean                4822
## 10        2013 Middle East and North Africa                   2038
## # ... with 32 more rows
…
Podemos empezar cambiando la forma en que se pone la fecha, en general esta fecha aparece por defecto con el día en que se crea el archivo. Con el código date: ‘r format(Sys.Date(),’%d de %B del %Y’)’ y algunos otros podremos poner la sintáxis de la fecha a nuestra conveniencia. En el ejemplo en negritas la fecha en el archivo aparecerá como: 05 de marzo del 2021 (suponiendo que la fecha en la que se “teje” el archivo es la ejemplificada).

Capítulo 2. Análisis de información.

Filtrar información

Veamos el caso de los proyectos de inversión realizados en Indonesia. Para ello usamos la función filter de la paquetería dplyr.

Nota: es recomendable hacer varias secciones de código (chunks) y que cada chunk tenga un nombre referente a lo que se escribe en el código.

indonesia_investment_projects <-
  investment_services_projects %>% filter(country == "Indonesia")
indonesia_investment_projects
## # A tibble: 39 x 13
##    date_disclosed      country  ifc_country_code sector       project_name      
##    <dttm>              <chr>    <chr>            <chr>        <chr>             
##  1 2018-10-12 00:00:00 Indones~ INS              Financial I~ KEB Hana Indonesi~
##  2 2018-08-10 00:00:00 Indones~ INS              Financial I~ JV Housing Indo   
##  3 2018-08-03 00:00:00 Indones~ INS              Tourism, Re~ Trans Corpora     
##  4 2018-07-23 00:00:00 Indones~ INS              Infrastruct~ Riau IPP          
##  5 2018-04-27 00:00:00 Indones~ INS              other        SSIA Ind Est      
##  6 2018-04-25 00:00:00 Indones~ INS              Infrastruct~ PT Bajradaya Sent~
##  7 2018-01-10 00:00:00 Indones~ INS              Agribusines~ Nabati Indonesia  
##  8 2017-11-14 00:00:00 Indones~ INS              Financial I~ MBK Loan 2017     
##  9 2017-07-05 00:00:00 Indones~ INS              Financial I~ IIF USD Loan      
## 10 2017-04-12 00:00:00 Indones~ INS              Financial I~ Indosurya Finance 
## # ... with 29 more rows, and 8 more variables: project_number <dbl>,
## #   company_name <chr>, status <chr>,
## #   ifc_investment_for_risk_management_million_usd <dbl>,
## #   ifc_investment_for_guarantee_million_usd <dbl>,
## #   ifc_investment_for_loan_million_usd <dbl>,
## #   ifc_investment_for_equity_million_usd <dbl>,
## #   total_ifc_investment_as_approved_by_board_million_usd <dbl>
…
Si se desea que el código se cargue pero que no aparezca éste ni sus resultados en el archivo Markdown (no se vea el código ni los resultados que calcula) entonces podemos usar la opción include = FALSE. Esta opción hace invisible el código y los resultados por defecto pero sí permite usar los mismos como parte del texto en el archivo (ver sección.)

Echo

Si queremos que no aparezca el código y sí los resultados entonces se puede usar la especificación echo = FALSE. Es una práctica usual cuando se presentan gráficas, porque se quiere el gráfico pero no el código con el cual se realiza.

Collapse

Se puede usar collapse = TRUE si queremos que el código presentado en el archivo de R Markdown aparezca en el mismo espacio de chunk. Ejemplo:

collapse = FALSE por defecto. Aquí se separan los resultados en dos partes del código.

investment_annual_summary

## # A tibble: 42 x 3
##    fiscal_year region                          dollars_in_millions
##          <dbl> <chr>                                         <dbl>
##  1        2012 East Asia and the Pacific                      2548
##  2        2012 Europe and Central Asia                        2915
##  3        2012 Latin America and the Caribbean                3680
##  4        2012 Middle East and North Africa                   2210
##  5        2012 South Asia                                     1312
##  6        2012 Sub-Saharan Africa                             2733
##  7        2013 East Asia and the Pacific                      2873
##  8        2013 Europe and Central Asia                        3261
##  9        2013 Latin America and the Caribbean                4822
## 10        2013 Middle East and North Africa                   2038
## # ... with 32 more rows
…
collapse = TRUE se tiene que especificar. Aquí se “juntan” los resultados del código.

investment_annual_summary
## # A tibble: 42 x 3
##    fiscal_year region                          dollars_in_millions
##          <dbl> <chr>                                         <dbl>
##  1        2012 East Asia and the Pacific                      2548
##  2        2012 Europe and Central Asia                        2915
##  3        2012 Latin America and the Caribbean                3680
##  4        2012 Middle East and North Africa                   2210
##  5        2012 South Asia                                     1312
##  6        2012 Sub-Saharan Africa                             2733
##  7        2013 East Asia and the Pacific                      2873
##  8        2013 Europe and Central Asia                        3261
##  9        2013 Latin America and the Caribbean                4822
## 10        2013 Middle East and North Africa                   2038
## # ... with 32 more rows
…
